…
``` r
library(p8105.datasets)
data("instacart")
```

``` r
instacart %>% 
  count(product_name)
```

    ## # A tibble: 39,123 × 2
    ##    product_name                                                                n
    ##    <chr>                                                                   <int>
    ##  1 "\\\"Constant Comment\\\" Black Tea"                                        3
    ##  2 "\\\"Constant Comment\\\" Decaffeinated Black Tea Blend"                    3
    ##  3 "\\\"Darn Good\\\" Chili Mix"                                               5
    ##  4 "\\\"Im Pei-nut Butter\\\" Double Chocolate Cookie & Peanut Butter Ice…     5
    ##  5 "\\\"Mies Vanilla Rohe\\\" Ice Cream Bars"                                  6
    ##  6 "\\\"Mokaccino\\\" Milk + Blue Bottle Coffee Chocolate"                    10
    ##  7 "& Go! Hazelnut Spread + Pretzel Sticks"                                   10
    ##  8 "#2 Coffee Filters"                                                        22
    ##  9 "#2 Cone White Coffee Filters"                                              1
    ## 10 "#2 Mechanical Pencils"                                                     1
    ## # … with 39,113 more rows

``` r
instacart %>% 
  count(user_id)
```

    ## # A tibble: 131,209 × 2
    ##    user_id     n
    ##      <int> <int>
    ##  1       1    11
    ##  2       2    31
    ##  3       5     9
    ##  4       7     9
    ##  5       8    18
    ##  6       9    22
    ##  7      10     4
    ##  8      13     5
    ##  9      14    11
    ## 10      17     6
    ## # … with 131,199 more rows

``` r
instacart %>% 
  count(order_id)
```

    ## # A tibble: 131,209 × 2
    ##    order_id     n
    ##       <int> <int>
    ##  1        1     8
    ##  2       36     8
    ##  3       38     9
    ##  4       96     7
    ##  5       98    49
    ##  6      112    11
    ##  7      170    17
    ##  8      218     5
    ##  9      226    13
    ## 10      349    11
    ## # … with 131,199 more rows
